%YAML 1.1
%TAG !u! tag:unity3d.com,2011:
--- !u!114 &11400000
MonoBehaviour:
  m_ObjectHideFlags: 0
  m_CorrespondingSourceObject: {fileID: 0}
  m_PrefabInstance: {fileID: 0}
  m_PrefabAsset: {fileID: 0}
  m_GameObject: {fileID: 0}
  m_Enabled: 1
  m_EditorHideFlags: 0
  m_Script: {fileID: 11500000, guid: 9f9dea021594e7b419bba23f8c16d389, type: 3}
  m_Name: Sword_Kalas
  m_EditorClassIdentifier: 
  _name: Kalas
  _icon: {fileID: 21300000, guid: b5a52dd36bb353140a20d3eaa22a8ceb, type: 3}
  _itemID: 2
  _itemRarity: 3
  _rarity: {fileID: 11400000, guid: 3d0e7fd0841399f4797ef64346234392, type: 2}
  _sellPrice: 3
  _maxStack: 1
  _type: 0
  _weaponClass: 0
  _useText: Dagger of overwhelming ability
  _meshPrefab: {fileID: 0}
  _damageArmor: 20
