%YAML 1.1
%TAG !u! tag:unity3d.com,2011:
--- !u!114 &11400000
MonoBehaviour:
  m_ObjectHideFlags: 0
  m_CorrespondingSourceObject: {fileID: 0}
  m_PrefabInstance: {fileID: 0}
  m_PrefabAsset: {fileID: 0}
  m_GameObject: {fileID: 0}
  m_Enabled: 1
  m_EditorHideFlags: 0
  m_Script: {fileID: 11500000, guid: 9e54ec8c8fef90f4da75034643d607dc, type: 3}
  m_Name: Player_WeaponInventory
  m_EditorClassIdentifier: 
  _OnEquipmentUpdated: {fileID: 11400000, guid: d9e639ab5ad51934c8c244b4eab771cd,
    type: 2}
