%YAML 1.1
%TAG !u! tag:unity3d.com,2011:
--- !u!114 &11400000
MonoBehaviour:
  m_ObjectHideFlags: 0
  m_CorrespondingSourceObject: {fileID: 0}
  m_PrefabInstance: {fileID: 0}
  m_PrefabAsset: {fileID: 0}
  m_GameObject: {fileID: 0}
  m_Enabled: 1
  m_EditorHideFlags: 0
  m_Script: {fileID: 11500000, guid: bf4f9ac5c0902b34689cf445fbe5921c, type: 3}
  m_Name: Rarity_Datu
  m_EditorClassIdentifier: 
  name: Datu
  _textColor: {r: 0.9811321, g: 0.5509067, b: 0, a: 1}
